RUT/RUC	     Nombre	              Telefono	  Fecha Creacion
13680986741 aguirreyexposito Cia Ltda 014871566 07-05-2019
11907460407 Salinas & Soto Cia Ltda 087216511 07-05-2019
91489807773 Lorca & Lorca Cia Ltda 084683853 08-05-2019
65682081-0 Bustos & Arcos Cia Ltda 258211214 09-05-2019
30891925-0 Mario Campos 238163834 15-05-2019
24462574-6 Marcos Canales 281516862 31-05-2019
14990371-2 Javier Bernal 258887653 03-06-2019
20962239-4 Juan Soto 274185734 04-06-2019
12487151-4 Alvaro Albero 238331153 05-06-2019
23541704-9 Juan Bustos 218414541 05-06-2019
22017327-5 Mario Perez 247388853 06-06-2019
21242739-K Luis Hierro 234745438 06-06-2019
21633893-6 Esteban Arcos 288762236 06-06-2019
29764751-2 Cristian Jaramillo 215525443 06-06-2019
11844252-0 Isaac Aguirre 218887614 06-06-2019
27950847-5 Sergio Fuentes 286232415 12-06-2019
19482717-2 Juan Donoso 262122441 28-06-2019
30471651-7 Adrian Bernal 263283785 28-06-2019
22282673-K Marcelo Figueroa 273151615 01-07-2019
17682212-0 Cristian Cossio 284884434 01-07-2019
12372366-K Joaquin Jaramillo 256644442 01-07-2019
21897581-K Esteban Egea 226764231 02-07-2019
20316641-9 Cristian Escobar 218581586 02-07-2019
22899211-9 Miguel Lorca 274717712 02-07-2019
24109645-9 Marcos Folch 248273311 04-07-2019
21175398-6 Isaac Donoso 268263737 04-07-2019
17014431-7 Diego Donoso 244886665 04-07-2019
24616859-8 Pablo Jaramillo 228426544 04-07-2019
24093268-7 Alexis Bustos 255322373 07-07-2019
23058602-0 Claudio Aliaga 215572873 07-07-2019
23112898-0 Alvaro Duque 232335251 07-07-2019
24634007-2 Mateo Salinas 211868725 07-07-2019
13894209-0 Paul Albero 232474721 07-07-2019
69721839-4  Aranda & Hierro Cia Ltda  221677553  07-07-2019
60270068-2  Daza & Soto Cia Ltda  266413246  08-07-2019
52493228-8  Pino & Campos Cia Ltda  268872524  08-07-2019
54260996-6  Aguirre & Perez Cia Ltda  243718228  08-07-2019
92218573-5  Fuentes & Donoso Cia Ltda  242117317  08-07-2019
94141335-8  Parra & Arcos Cia Ltda  276318166  08-07-2019
71465720-8  Donoso & Arcos Cia Ltda  246841385  08-07-2019
75517300-2  Campos & Soto Cia Ltda  242436683  08-07-2019
74633576-8  Exposito & Perez Cia Ltda  252736785  09-07-2019
60668594-7  Canales & Arcos Cia Ltda  237222256  09-07-2019
52261372-K  Canales & Daza Cia Ltda  213482147  09-07-2019
19655077-1 Claudio Figueroa 281534731 09-07-2019
13156625-5 Diego Borja 217618317 15-07-2019
24472320-9 Alexis Campos 275514227 17-07-2019
14079653-0 Diego Cossio 278154358 17-07-2019
11492986-7 Diego Albero 221261435 17-07-2019
25919808-9 Julio Escobar 226252266 17-07-2019
28065975 Adrian Pino 056542717 19-07-2019
27046711 Jorge Albero 075752248 22-07-2019
20065138 Luis Soto 064643158 30-07-2019
18323486-2 Marcos Aguirre 227458711 01-08-2019
9996642-4 Carlos Escobar 265852771 01-08-2019
10800564-5 Marcos Arcos 282678754 01-08-2019
12094841-5 Marcos Albero 247376182 01-08-2019
30632927-8 Marcos Escobar 284183867 02-08-2019
25346096 Alexis Fuentes 084171641 05-08-2019
23104552 Alvaro Perez 037673182 05-08-2019
15822411 Vicente Escobar 045832454 06-08-2019
16135412 Marcos Fuentes 022474428 06-08-2019
24003274 Marcos Campos 031127548 08-08-2019
17327667 Nelson Aliaga 052572662 08-08-2019
26285721 Adrian Figueroa 067681823 09-08-2019
16730633 Marcelo Hierro 027424828 09-08-2019
22097766 Julio Egea 042332842 09-08-2019
10768273752  Albero & Bernal Cia Ltda  011232172  20-08-2019
87588035918  Aranda & Illanes Cia Ltda  075381718  20-08-2019
80754884946  Duque & Duque Cia Ltda  061424878  21-08-2019
84942876171  Exposito & Soto Cia Ltda  018246177  21-08-2019
13082437477  Pino & Soto Cia Ltda  043457763  21-08-2019
10321416952  Folch & Arcos Cia Ltda  045666254  21-08-2019
20845561 Luis Folch 054225346 21-08-2019
31219852 Claudio Duque 047511423 21-08-2019
24899658 Mateo Arcos 077383828 22-08-2019
12382348 Marcelo Perez 083735244 23-08-2019
24189300 Pablo Aliaga 056423627 26-08-2019
23524702 Marcos Bustos 042674365 26-08-2019
14186590 Adrian Hierro 087421366 26-08-2019
29835064-5 Isaac Figueroa 283842826 26-08-2019
9751384-8 Marcelo Aranda 267464214 27-08-2019
30672347-2 Mateo Egea 234683711 27-08-2019
25866417-5 Mateo Daza 215642185 27-08-2019
25952941-7 Jorge Jaramillo 263247682 28-08-2019
11513657-7 David Exposito 233827821 28-08-2019
29625263-8 Luis Bustos 223435615 28-08-2019
23464264-2 Raul Albero 233437324 28-08-2019
20840705-8 Marcelo Albero 214442164 29-08-2019
22773994-0 Vicente Arcos 215513836 30-08-2019
13698166-8 Julio Duque 266321367 30-08-2019
27923695-5 Mateo Jaramillo 275662843 30-08-2019
24705949-0 Diego Jaramillo 265373224 30-08-2019
19152980-4 Marcelo Arcos 283357632 30-08-2019
12630676-8 Isaac Jaramillo 233541336 30-08-2019
28840336-8 Marcelo Soto 243827863 30-08-2019
13429563-5 Carlos Lorca 272266431 30-08-2019
9033593-6 Julio Jaramillo 252537338 30-08-2019
23337469-5 Jorge Cossio 251673276 30-08-2019
16124953-K Paul Albero 267733283 30-08-2019
99857150-2  Aliaga & Cossio Cia Ltda  286768575  30-08-2019
51066271-7  Hierro & Daza Cia Ltda  251622325  30-08-2019
88917463-3  Perez & Cossio Cia Ltda  246722243  30-08-2019
26485313 Vicente Daza 066686377 30-08-2019
26777146 Marcos Albero 074852223 30-08-2019
50818523822  Lorca & Campos Cia Ltda  042216235  30-08-2019
13164083-8 Julio Arenas 252764453 31-08-2019
19621516-6 Mario Arenas 271244766 31-08-2019
26003653 Claudio Aranda 078847455 31-08-2019
55307483-5  Figueroa & Illanes Cia Ltda  288178363  31-08-2019
26148242-8 Raul Fuentes 221343213 10-09-2019
20772901-9 Adrian Hierro 252553466 24-09-2019
17467607-0 Javier Illanes 214687764 25-09-2019
19340811-7 Julio Fuentes 265274232 17-12-2019
20132484-K Alvaro Aguirre 224586532 19-12-2019
64057063-6  Daza & Bernal Cia Ltda  274538481  19-12-2019
30824546-2 Isaac Folch 274341751 20-12-2019
17898995 Alvaro Parra 034813588 23-12-2019
73719489772  Duque & Canales Cia Ltda  082174274  24-12-2019
22931391-6 Antonio Cossio 243623362 24-12-2019
65185943-3  Cossio & Duque Cia Ltda  271752266  24-12-2019
28318238 Claudio Folch 018723726 26-12-2019
9053333-9 Cristian Bernal 281352664 30-12-2020
26238502-7 Paul Arcos 231714734 30-12-2020
11795798-5 Esteban Jaramillo 237376877 30-12-2020
20370160 Marcelo Duque 064642568 30-12-2020
